<?xml version="1.0" encoding="utf-8"?>
<!-- Generator: Adobe Illustrator 16.0.0, SVG Export Plug-In . SVG Version: 6.00 Build 0)  -->
<!DOCTYPE svg PUBLIC "-//W3C//DTD SVG 1.1//EN" "http://www.w3.org/Graphics/SVG/1.1/DTD/svg11.dtd">
<svg version="1.1" xmlns="http://www.w3.org/2000/svg" xmlns:xlink="http://www.w3.org/1999/xlink" x="0px" y="0px"
	 width="286.169px" height="392.088px" viewBox="0 0 286.169 392.088" enable-background="new 0 0 286.169 392.088"
	 xml:space="preserve">
<g id="Layer_2">
</g>
<g id="Layer_1">
	<g>
		<path fill="#37A19D" d="M182.529,191.735c13.279-31.71,20.779-41.21,21.93-60.05c0.03-0.479-0.29-3.35-0.29-4.13
			c0-5.46-0.98-10.399-2.94-14.88s-4.88-8.5-8.76-12.17c-7.76-7.32-18.18-10.99-30.64-10.99c-1.92,0-6.391,0.34-6.391,0.34
			c-24.25,1.54-104.779,37.99-95.819,93.311c8.939,55.33,23.85,50.069,20.859,102.68c0,0,0.011-0.07,0.03-0.07
			c-0.189,2.37-0.27,4.721-0.27,7.17c0,25.091,8.39,45.03,25.189,59.9c8.86,8.11,19.681,12.14,32.42,12.14
			c17.2,0,32.101-8.359,44.681-25.04c3.31-5.14,5.729-10.369,7.14-15.909c3.21-12.551,1.3-26.63-7.14-44.48
			C170.379,253.826,168.419,225.485,182.529,191.735z M125.709,133.056c0.8-3.37,2.65-5.8,5.55-7.27
			c5.67-2.88,10.19-1.011,13.57,5.609c1.55,3.05,2.01,6.431,1.37,10.141c-0.63,3.71-2.32,6.27-5.08,7.68
			c-5.811,2.96-10.5,0.91-14.09-6.13C125.339,139.766,124.899,136.426,125.709,133.056z M106.389,143.485
			c0.73-2.989,2.37-5.149,4.94-6.46c5.04-2.56,9.06-0.899,12.06,4.99c1.38,2.7,1.78,5.71,1.221,9.01
			c-0.561,3.301-2.061,5.57-4.521,6.83c-5.16,2.62-9.33,0.801-12.52-5.46C106.069,149.445,105.679,146.485,106.389,143.485z
			 M90.239,156.945c0.63-2.63,2.08-4.529,4.35-5.68c4.42-2.26,7.96-0.79,10.6,4.391c1.211,2.369,1.561,5.02,1.07,7.92
			c-0.49,2.899-1.81,4.899-3.97,6c-4.54,2.31-8.22,0.71-11.021-4.79C89.949,162.186,89.609,159.576,90.239,156.945z M78.159,181.275
			c-1.21-2.359-1.521-4.729-0.95-7.13c0.58-2.39,1.9-4.109,3.96-5.16c4.02-2.05,7.24-0.72,9.64,3.99
			c1.101,2.16,1.431,4.57,0.98,7.21c-0.45,2.63-1.66,4.45-3.62,5.45C84.049,187.746,80.709,186.286,78.159,181.275z
			 M164.539,285.886c5.66,11.97,6.939,21.41,4.78,29.83c-0.94,3.71-2.561,7.22-4.78,10.66c-8.44,11.18-18.43,16.78-29.96,16.78
			c-8.53,0-15.8-2.711-21.73-8.15c-11.26-9.97-16.89-23.36-16.89-40.18c0-1.641,0.06-3.271,0.18-4.851c-0.01,0-0.01-0.05-0.01-0.05
			c2-35.27-7.99-31.93-13.99-69.02c-6-37.091,46.96-61.521,68.391-62.931c24.76-1.609,28.87,18.17,9.17,63.13
			C149.849,243.565,156.389,268.636,164.539,285.886z M164.289,151.866c-8.84,0.63-13.64-4.431-14.4-15.16
			c-0.359-5.05,0.851-9.471,3.65-13.271c2.8-3.79,6.41-5.85,10.83-6.16c8.62-0.619,13.3,4.131,14.02,14.23
			c0.33,4.63-0.89,9.11-3.649,13.43C171.979,149.246,168.499,151.565,164.289,151.866z"/>
		<path fill="#37A19D" d="M182.275,28.047c-6.593,0.47-11.979,3.544-16.15,9.194c-4.171,5.671-5.985,12.257-5.444,19.795
			c1.136,16.004,8.294,23.542,21.487,22.601c6.272-0.445,11.47-3.898,15.578-10.338c4.117-6.44,5.935-13.115,5.445-20.026
			C202.117,34.209,195.135,27.131,182.275,28.047z"/>
		<path fill="#37A19D" d="M132.9,40.742c-4.328,2.204-7.089,5.826-8.295,10.841c-1.204,5.034-0.544,10.01,1.974,14.956
			c5.354,10.51,12.359,13.562,21.013,9.154c4.124-2.102,6.65-5.924,7.586-11.46c0.942-5.538,0.266-10.574-2.043-15.112
			C148.098,39.234,141.345,36.441,132.9,40.742z"/>
		<path fill="#37A19D" d="M103.181,57.51c-3.846,1.959-6.307,5.178-7.377,9.636c-1.069,4.473-0.485,8.897,1.756,13.294
			c4.76,9.341,10.982,12.053,18.679,8.135c3.662-1.865,5.908-5.266,6.743-10.184c0.836-4.923,0.234-9.4-1.817-13.433
			C116.687,56.171,110.682,53.687,103.181,57.51z"/>
		<path fill="#37A19D" d="M78.195,78.741c-3.383,1.722-5.548,4.555-6.485,8.477c-0.944,3.934-0.428,7.822,1.541,11.692
			c4.187,8.212,9.66,10.598,16.428,7.152c3.218-1.641,5.193-4.632,5.926-8.955c0.735-4.33,0.209-8.269-1.598-11.815
			C90.067,77.564,84.792,75.38,78.195,78.741z"/>
		<path fill="#37A19D" d="M58.175,105.176c-3.071,1.568-5.041,4.142-5.893,7.706c-0.855,3.579-0.39,7.119,1.4,10.636
			c3.806,7.467,8.786,9.638,14.939,6.506c2.931-1.492,4.725-4.213,5.392-8.147c0.672-3.936,0.186-7.518-1.453-10.742
			C68.978,104.104,64.185,102.118,58.175,105.176z"/>
	</g>
	<g>
		<path fill="#FA921A" d="M142.749,265.602c6.885-18.247,3.341-35.884-7.186-35.86c-10.899,0.024-31.367,10.225-31.092,29.544
			c0.27,19.07,3.254,46.176,15.583,57.92c2.957,2.819,6.699,4.141,11.036,4.141c5.854,0,10.925-2.845,15.207-8.521
			c1.124-1.747,1.944-3.529,2.427-5.413c1.095-4.271,0.443-9.062-2.427-15.139C142.167,283.518,138.354,277.251,142.749,265.602z"/>
		<path fill="#FA921A" d="M147.748,211.722c-2.237-0.234-4.23,0.476-5.96,2.118c-1.737,1.649-2.738,3.751-3.006,6.309
			c-0.573,5.43,1.382,8.384,5.854,8.854c2.128,0.223,4.073-0.624,5.834-2.537c1.764-1.913,2.771-4.04,3.019-6.386
			C154.028,214.971,152.108,212.182,147.748,211.722z"/>
		<path fill="#FA921A" d="M127.776,214.257c-1.475,0.752-2.413,1.985-2.826,3.691c-0.408,1.714-0.184,3.408,0.672,5.09
			c1.822,3.576,4.205,4.616,7.151,3.116c1.405-0.715,2.266-2.019,2.586-3.899c0.322-1.887,0.087-3.604-0.699-5.146
			C132.948,213.746,130.649,212.794,127.776,214.257z"/>
		<path fill="#FA921A" d="M113.639,220.342c-1.198,0.854-1.857,2.06-1.993,3.615c-0.138,1.558,0.279,3.02,1.254,4.386
			c2.071,2.906,4.296,3.507,6.693,1.803c1.139-0.811,1.726-2.068,1.761-3.766c0.033-1.698-0.396-3.176-1.289-4.431
			C118.12,219.216,115.977,218.679,113.639,220.342z"/>
		<path fill="#FA921A" d="M102.614,229.917c-0.835,0.982-1.146,2.154-0.927,3.511c0.219,1.357,0.89,2.513,2.014,3.472
			c2.391,2.033,4.423,2.065,6.096,0.097c0.798-0.937,1.03-2.135,0.69-3.588c-0.332-1.457-1.017-2.627-2.048-3.504
			C106.188,227.992,104.249,227.996,102.614,229.917z"/>
		<path fill="#FA921A" d="M95.373,242.783c-0.571,1.03-0.639,2.127-0.19,3.298c0.438,1.171,1.245,2.079,2.421,2.729
			c2.494,1.381,4.312,1.042,5.45-1.017c0.539-0.978,0.529-2.087-0.034-3.322c-0.564-1.236-1.382-2.153-2.461-2.752
			C98.212,240.421,96.48,240.777,95.373,242.783z"/>
	</g>
</g>
<g id="Layer_3">
</g>
</svg>
